{
  "name": "meurtre au stade",
  "listItems": [
    {
      "name": "stadium",
      "kind": "building",
      "isClue": false
    },
    {
      "name": "corps",
      "kind": "item",
      "isClue": false
    },
    {
      "name": "cone",
      "kind": "character",
      "isClue": true
    },
    {
      "name": "pied",
      "kind": "item",
      "isClue": false
    }
  ],
  "listChoices": [
    {
      "name": "athlete",
      "kind": "character",
      "description": [
        {
          "name": "whistle",
          "kind": "item"
        },
        {
          "name": "trophy",
          "kind": "item"
        },
        {
          "name": "injecting-syringe",
          "kind": "item"
        }
      ],
      "isClue": true
    },
    {
      "name": "basketball-player",
      "kind": "character",
      "description": [
        {
          "name": "padlock",
          "kind": "item"
        },
        {
          "name": "binoculars",
          "kind": "item"
        },
        {
          "name": "knife",
          "kind": "item"
        },
        {
          "name": "ticket",
          "kind": "item"
        }
      ],
      "isClue": true
    },
    {
      "name": "photographer",
      "kind": "character",
      "description": [
        {
          "name": "photo-camera",
          "kind": "item"
        },
        {
          "name": "microphone-for-journalists",
          "kind": "item"
        },
        {
          "name": "press-pass",
          "kind": "item"
        }
      ],
      "isClue": false
    },
    {
      "name": "mafia",
      "kind": "character",
      "description": [
        {
          "name": "butterfly-knife",
          "kind": "item"
        },
        {
          "name": "gun",
          "kind": "item"
        },
        {
          "name": "flask",
          "kind": "item"
        },
        {
          "name": "money",
          "kind": "item"
        }
      ],
      "isClue": false
    }
  ],
  "solution": "athlete",
  "reward": "money"
}